{
  "id": "31592788-fe75-4199-a34c-8fd9824f6441",
  "name": "Kubernetes",
  "values": [
    {
      "key": "KUB_HOST",
      "value": "127.0.0.1",
      "description": "",
      "enabled": true
    },
    {
      "key": "KUB_EXT_PORT",
      "value": "32544",
      "type": "text",
      "description": "",
      "enabled": true
    }
  ],
  "_postman_variable_scope": "environment",
  "_postman_exported_at": "2018-09-30T11:59:34.041Z",
  "_postman_exported_using": "Postman/6.3.0"
}